%YAML 1.1
%TAG !u! tag:unity3d.com,2011:
--- !u!114 &11400000
MonoBehaviour:
  m_ObjectHideFlags: 0
  m_PrefabParentObject: {fileID: 0}
  m_PrefabInternal: {fileID: 0}
  m_GameObject: {fileID: 0}
  m_Enabled: 1
  m_EditorHideFlags: 0
  m_Script: {fileID: 11500000, guid: 1e1adf7d5dcd1874583cf2cdc467edba, type: 3}
  m_Name: WetClothes_IsFalse
  m_EditorClassIdentifier: 
  m_Description: Ropa o Tela mojada
  m_IsSatisfied: 0
  m_Hash: 0
