%YAML 1.1
%TAG !u! tag:unity3d.com,2011:
--- !u!114 &11400000
MonoBehaviour:
  m_ObjectHideFlags: 0
  m_PrefabParentObject: {fileID: 0}
  m_PrefabInternal: {fileID: 0}
  m_GameObject: {fileID: 0}
  m_Enabled: 1
  m_EditorHideFlags: 0
  m_Script: {fileID: 11500000, guid: 11f7515fd7b82f44c957ff94c5e24cf1, type: 3}
  m_Name: Riesgos en casa
  m_EditorClassIdentifier: 
  m_ProtocolName: Riesgos en casa
  m_ProtocolIntroduction: "Da un paseo por la casa y mira informaci\xF3n que puede
    ser util"
  m_ProtocolScene: DemoScene
  m_Steps:
  - {fileID: 11400000, guid: 93413f306648f144b829d8a43f54f9e4, type: 2}
  - {fileID: 11400000, guid: e15073b8bedffa440909bac99453c3c2, type: 2}
  - {fileID: 11400000, guid: 2bb88231e6729224ea95bc9b6d5e798c, type: 2}
  - {fileID: 11400000, guid: 17ed6dac58e3ffc40920beaf192a0258, type: 2}
  - {fileID: 11400000, guid: 993e9aaefad0afc47aaafee11da766f1, type: 2}
  - {fileID: 11400000, guid: a5794fb5cb94ebe42b70e982e6a1e206, type: 2}
  m_ActiveConditions: {fileID: 11400000, guid: c8f3754ec4610c247807fbe2ed677684, type: 2}
