%YAML 1.1
%TAG !u! tag:unity3d.com,2011:
--- !u!114 &11400000
MonoBehaviour:
  m_ObjectHideFlags: 0
  m_PrefabParentObject: {fileID: 0}
  m_PrefabInternal: {fileID: 0}
  m_GameObject: {fileID: 0}
  m_Enabled: 1
  m_EditorHideFlags: 0
  m_Script: {fileID: 11500000, guid: c3ae3ac1c59199a4eb06c8826dd8a7b4, type: 3}
  m_Name: FireText
  m_EditorClassIdentifier: 
  m_TextTitle: Fuego
  m_TextBody: El fuego se puede propagar en madera y otros materiales
  m_TextTitleColor: {r: 0, g: 0, b: 0, a: 1}
  m_TextBodyColor: {r: 0, g: 0, b: 0, a: 1}
  m_ShowingTime: 0
