%YAML 1.1
%TAG !u! tag:unity3d.com,2011:
--- !u!114 &11400000
MonoBehaviour:
  m_ObjectHideFlags: 0
  m_PrefabParentObject: {fileID: 0}
  m_PrefabInternal: {fileID: 0}
  m_GameObject: {fileID: 0}
  m_Enabled: 1
  m_EditorHideFlags: 0
  m_Script: {fileID: 11500000, guid: c3ae3ac1c59199a4eb06c8826dd8a7b4, type: 3}
  m_Name: StepDoneText
  m_EditorClassIdentifier: 
  m_TextTitle: Bien
  m_TextBody: Bien Hecho
  m_TextTitleColor: {r: 0.13828896, g: 0.5588235, b: 0.12326988, a: 1}
  m_TextBodyColor: {r: 0.23515245, g: 0.50735295, b: 0.078341275, a: 1}
  m_ShowingTime: 3
