%YAML 1.1
%TAG !u! tag:unity3d.com,2011:
--- !u!114 &11400000
MonoBehaviour:
  m_ObjectHideFlags: 0
  m_PrefabParentObject: {fileID: 0}
  m_PrefabInternal: {fileID: 0}
  m_GameObject: {fileID: 0}
  m_Enabled: 1
  m_EditorHideFlags: 0
  m_Script: {fileID: 11500000, guid: 67cda092cde99b94fa6e481105fa9095, type: 3}
  m_Name: OpenWaterTap
  m_EditorClassIdentifier: 
  m_TitleDescription: 
  m_ActionDescription: 
  m_ActionDone: 0
  m_Verified: 0
  m_Repeatable: 0
  m_KeepActive: 0
  m_KeepUntilAction: {fileID: 0}
  m_ObjetiveName: faucets
  m_WantedState: 0
  m_InitialState: 1
