%YAML 1.1
%TAG !u! tag:unity3d.com,2011:
--- !u!114 &11400000
MonoBehaviour:
  m_ObjectHideFlags: 0
  m_PrefabParentObject: {fileID: 0}
  m_PrefabInternal: {fileID: 0}
  m_GameObject: {fileID: 0}
  m_Enabled: 1
  m_EditorHideFlags: 0
  m_Script: {fileID: 11500000, guid: d3a4734d520d806459c502b1143e285a, type: 3}
  m_Name: WaterOn_ToFalse
  m_EditorClassIdentifier: 
  m_Condition: {fileID: 11400000, guid: 62be7cf485183da4f8201776c505db76, type: 2}
  m_Satisfied: 0
