%YAML 1.1
%TAG !u! tag:unity3d.com,2011:
--- !u!114 &11400000
MonoBehaviour:
  m_ObjectHideFlags: 0
  m_PrefabParentObject: {fileID: 0}
  m_PrefabInternal: {fileID: 0}
  m_GameObject: {fileID: 0}
  m_Enabled: 1
  m_EditorHideFlags: 0
  m_Script: {fileID: 11500000, guid: 8c887c68edeb532499fc8532f00afc7b, type: 3}
  m_Name: HotDoorGlow
  m_EditorClassIdentifier: 
  m_GlowColor: {r: 1.007353, g: 0.30368727, b: 0.30368727, a: 1}
  m_TimeTinted: 1
